{
  "auth": {
    "login": {
      "POST /api/auth/login": {
        "token": "eyJhbGciOiJIUzI1NiIsInR5cCI6IkpXVCJ9.mock",
        "refresh_token": "mock_refresh_token_abc123",
        "expires_in": 2592000,
        "user": {
          "id": "usr_01HZ8K2M3N4P5Q6R7S8T9",
          "email": "arjun.kumar@gmail.com",
          "name": "Arjun Kumar",
          "phone": "+91 98765 43210",
          "avatar": "https://api.dicebear.com/7.x/avataaars/svg?seed=arjun",
          "is_profile_complete": true,
          "role": "customer",
          "created_at": "2024-01-15T09:30:00Z"
        }
      }
    },
    "register": {
      "POST /api/auth/register": {
        "message": "Registration successful. Please complete your profile.",
        "user": {
          "id": "usr_01HZ8K2M3N4P5Q6R7S8T9",
          "email": "newuser@gmail.com",
          "is_profile_complete": false,
          "role": "customer"
        }
      }
    },
    "google_oauth": {
      "GET /api/auth/google": {
        "redirect_url": "https://accounts.google.com/o/oauth2/v2/auth?..."
      }
    },
    "complete_profile": {
      "POST /api/auth/complete-profile": {
        "message": "Profile completed successfully.",
        "user": {
          "id": "usr_01HZ8K2M3N4P5Q6R7S8T9",
          "name": "Arjun Kumar",
          "phone": "+91 98765 43210",
          "is_profile_complete": true
        }
      }
    },
    "me": {
      "GET /api/auth/me": {
        "id": "usr_01HZ8K2M3N4P5Q6R7S8T9",
        "email": "arjun.kumar@gmail.com",
        "name": "Arjun Kumar",
        "phone": "+91 98765 43210",
        "avatar": "https://api.dicebear.com/7.x/avataaars/svg?seed=arjun",
        "is_profile_complete": true,
        "role": "customer",
        "addresses": [
          {
            "id": "addr_01",
            "label": "Home",
            "line1": "42, Sai Nagar",
            "line2": "Near Ganesh Temple",
            "city": "Coimbatore",
            "state": "Tamil Nadu",
            "pincode": "641011",
            "is_default": true
          },
          {
            "id": "addr_02",
            "label": "Work",
            "line1": "TIDEL Park, Block A",
            "line2": "Elcot Sez",
            "city": "Coimbatore",
            "state": "Tamil Nadu",
            "pincode": "641014",
            "is_default": false
          }
        ],
        "created_at": "2024-01-15T09:30:00Z"
      }
    }
  },

  "restaurants": {
    "GET /api/restaurants": {
      "count": 48,
      "next": "/api/restaurants?page=2",
      "previous": null,
      "results": [
        {
          "id": "rest_01",
          "name": "Murugan Idli Shop",
          "slug": "murugan-idli-shop",
          "description": "Iconic Coimbatore tiffin house famous for soft idlis and filter coffee since 1948.",
          "cuisine_tags": ["South Indian", "Tiffin", "Vegetarian"],
          "thumbnail": "https://images.unsplash.com/photo-1567188040759-fb8a883dc6d8?w=600",
          "cover_image": "https://images.unsplash.com/photo-1601050690597-df0568f70950?w=1200",
          "rating": 4.7,
          "total_reviews": 2847,
          "avg_delivery_time": 25,
          "min_order": 100,
          "delivery_fee": 30,
          "is_open": true,
          "is_featured": true,
          "discount": {
            "type": "percentage",
            "value": 20,
            "label": "20% OFF upto ₹100"
          },
          "location": {
            "city": "Coimbatore",
            "area": "RS Puram"
          }
        },
        {
          "id": "rest_02",
          "name": "Annapoorna Restaurant",
          "slug": "annapoorna-restaurant",
          "description": "Traditional Chettinad and Tamil Nadu cuisine with authentic spices and home-style preparation.",
          "cuisine_tags": ["Chettinad", "Non-Veg", "Biryani"],
          "thumbnail": "https://images.unsplash.com/photo-1585937421612-70a008356fbe?w=600",
          "cover_image": "https://images.unsplash.com/photo-1563379091339-03b21ab4a4f8?w=1200",
          "rating": 4.5,
          "total_reviews": 1934,
          "avg_delivery_time": 35,
          "min_order": 150,
          "delivery_fee": 40,
          "is_open": true,
          "is_featured": true,
          "discount": {
            "type": "flat",
            "value": 50,
            "label": "₹50 OFF on first order"
          },
          "location": {
            "city": "Coimbatore",
            "area": "Gandhipuram"
          }
        },
        {
          "id": "rest_03",
          "name": "Pizza Palace",
          "slug": "pizza-palace",
          "description": "Wood-fired pizzas with imported Italian ingredients, handcrafted with love.",
          "cuisine_tags": ["Italian", "Pizza", "Continental"],
          "thumbnail": "https://images.unsplash.com/photo-1565299624946-b28f40a0ae38?w=600",
          "cover_image": "https://images.unsplash.com/photo-1574071318508-1cdbab80d002?w=1200",
          "rating": 4.3,
          "total_reviews": 892,
          "avg_delivery_time": 40,
          "min_order": 299,
          "delivery_fee": 50,
          "is_open": true,
          "is_featured": false,
          "discount": null,
          "location": {
            "city": "Coimbatore",
            "area": "Avinashi Road"
          }
        },
        {
          "id": "rest_04",
          "name": "Biryani Brothers",
          "slug": "biryani-brothers",
          "description": "Hyderabadi dum biryani and Ambur-style biryanis cooked in traditional handi pots.",
          "cuisine_tags": ["Biryani", "Hyderabadi", "Non-Veg"],
          "thumbnail": "https://images.unsplash.com/photo-1631515243349-e0cb75fb8d3a?w=600",
          "cover_image": "https://images.unsplash.com/photo-1563379091339-03b21ab4a4f8?w=1200",
          "rating": 4.6,
          "total_reviews": 3102,
          "avg_delivery_time": 45,
          "min_order": 200,
          "delivery_fee": 35,
          "is_open": true,
          "is_featured": true,
          "discount": {
            "type": "percentage",
            "value": 15,
            "label": "15% OFF on orders above ₹400"
          },
          "location": {
            "city": "Coimbatore",
            "area": "Peelamedu"
          }
        },
        {
          "id": "rest_05",
          "name": "The Burger Lab",
          "slug": "the-burger-lab",
          "description": "Artisan smash burgers with premium patties, house-made sauces and brioche buns.",
          "cuisine_tags": ["American", "Burgers", "Sandwiches"],
          "thumbnail": "https://images.unsplash.com/photo-1568901346375-23c9450c58cd?w=600",
          "cover_image": "https://images.unsplash.com/photo-1550547660-d9450f859349?w=1200",
          "rating": 4.4,
          "total_reviews": 678,
          "avg_delivery_time": 30,
          "min_order": 199,
          "delivery_fee": 45,
          "is_open": false,
          "is_featured": false,
          "discount": null,
          "location": {
            "city": "Coimbatore",
            "area": "Race Course"
          }
        },
        {
          "id": "rest_06",
          "name": "Chai & Chaat Corner",
          "slug": "chai-chaat-corner",
          "description": "Mumbai-style street chaat, pani puri, and masala chai brewed to perfection.",
          "cuisine_tags": ["Street Food", "Chaat", "Snacks"],
          "thumbnail": "https://images.unsplash.com/photo-1606491956689-2ea866880c84?w=600",
          "cover_image": "https://images.unsplash.com/photo-1551218808-94e220e084d2?w=1200",
          "rating": 4.2,
          "total_reviews": 445,
          "avg_delivery_time": 20,
          "min_order": 80,
          "delivery_fee": 25,
          "is_open": true,
          "is_featured": false,
          "discount": {
            "type": "percentage",
            "value": 10,
            "label": "10% OFF"
          },
          "location": {
            "city": "Coimbatore",
            "area": "Saibaba Colony"
          }
        }
      ]
    },

    "GET /api/restaurants/:id": {
      "id": "rest_01",
      "name": "Murugan Idli Shop",
      "slug": "murugan-idli-shop",
      "description": "Iconic Coimbatore tiffin house famous for soft idlis and filter coffee since 1948. We use only the freshest ingredients, stone-ground batter, and traditional recipes passed down through three generations.",
      "cuisine_tags": ["South Indian", "Tiffin", "Vegetarian"],
      "thumbnail": "https://images.unsplash.com/photo-1567188040759-fb8a883dc6d8?w=600",
      "cover_image": "https://images.unsplash.com/photo-1601050690597-df0568f70950?w=1200",
      "rating": 4.7,
      "total_reviews": 2847,
      "avg_delivery_time": 25,
      "min_order": 100,
      "delivery_fee": 30,
      "is_open": true,
      "timings": "06:00 AM - 10:00 PM",
      "phone": "+91 422 234 5678",
      "address": "No. 77, Bharathiar Road, RS Puram, Coimbatore - 641002",
      "fssai": "12419992000123",
      "menu_categories": [
        {
          "id": "cat_01",
          "name": "Idli & Dosa",
          "icon": "🥞",
          "items": [
            {
              "id": "item_01",
              "name": "Soft Idli (2 pieces)",
              "description": "Classic steamed rice cakes served with sambar and three chutneys",
              "price": 45,
              "original_price": null,
              "image": "https://images.unsplash.com/photo-1589301760014-d929f3979dbc?w=400",
              "is_veg": true,
              "is_bestseller": true,
              "is_available": true,
              "spice_level": null,
              "customizations": [
                {
                  "name": "Extra Sambar",
                  "price": 10
                },
                {
                  "name": "Extra Chutney",
                  "price": 5
                }
              ]
            },
            {
              "id": "item_02",
              "name": "Ghee Roast Dosa",
              "description": "Crispy dosa drizzled with generous ghee, served with sambar and coconut chutney",
              "price": 75,
              "original_price": 85,
              "image": "https://images.unsplash.com/photo-1630383249896-424e482df921?w=400",
              "is_veg": true,
              "is_bestseller": true,
              "is_available": true,
              "spice_level": null,
              "customizations": []
            },
            {
              "id": "item_03",
              "name": "Masala Dosa",
              "description": "Crispy dosa stuffed with spiced potato filling, served with sambar and chutney",
              "price": 70,
              "original_price": null,
              "image": "https://images.unsplash.com/photo-1558449028-b53a39d100fc?w=400",
              "is_veg": true,
              "is_bestseller": false,
              "is_available": true,
              "spice_level": "mild",
              "customizations": []
            },
            {
              "id": "item_04",
              "name": "Rava Dosa",
              "description": "Crispy semolina dosa with onions and green chillies",
              "price": 65,
              "original_price": null,
              "image": "https://images.unsplash.com/photo-1599487488170-d11ec9c172f0?w=400",
              "is_veg": true,
              "is_bestseller": false,
              "is_available": false,
              "spice_level": "mild",
              "customizations": []
            }
          ]
        },
        {
          "id": "cat_02",
          "name": "Rice & Curries",
          "icon": "🍛",
          "items": [
            {
              "id": "item_05",
              "name": "Mini Meals (Vegetarian)",
              "description": "Full South Indian meal with rice, sambar, rasam, 4 curries, papad, and dessert",
              "price": 130,
              "original_price": null,
              "image": "https://images.unsplash.com/photo-1567188040759-fb8a883dc6d8?w=400",
              "is_veg": true,
              "is_bestseller": true,
              "is_available": true,
              "spice_level": "medium",
              "customizations": [
                {
                  "name": "Extra Rice",
                  "price": 20
                }
              ]
            },
            {
              "id": "item_06",
              "name": "Sambar Rice",
              "description": "Comfort rice cooked with dal and vegetables in tamarind sambar",
              "price": 90,
              "original_price": null,
              "image": "https://images.unsplash.com/photo-1596560548464-f010549b84d7?w=400",
              "is_veg": true,
              "is_bestseller": false,
              "is_available": true,
              "spice_level": "medium",
              "customizations": []
            }
          ]
        },
        {
          "id": "cat_03",
          "name": "Beverages",
          "icon": "☕",
          "items": [
            {
              "id": "item_07",
              "name": "Filter Coffee",
              "description": "Traditional decoction-based South Indian coffee with full-cream milk",
              "price": 35,
              "original_price": null,
              "image": "https://images.unsplash.com/photo-1514432324607-a09d9b4aefdd?w=400",
              "is_veg": true,
              "is_bestseller": true,
              "is_available": true,
              "spice_level": null,
              "customizations": [
                {
                  "name": "Extra Strong",
                  "price": 5
                },
                {
                  "name": "No Sugar",
                  "price": 0
                }
              ]
            },
            {
              "id": "item_08",
              "name": "Masala Chai",
              "description": "Spiced ginger tea with cardamom and tulsi",
              "price": 25,
              "original_price": null,
              "image": "https://images.unsplash.com/photo-1556679343-c7306c1976bc?w=400",
              "is_veg": true,
              "is_bestseller": false,
              "is_available": true,
              "spice_level": null,
              "customizations": []
            }
          ]
        }
      ]
    }
  },

  "cart": {
    "GET /api/cart": {
      "id": "cart_01",
      "restaurant": {
        "id": "rest_01",
        "name": "Murugan Idli Shop"
      },
      "items": [
        {
          "id": "cart_item_01",
          "menu_item": {
            "id": "item_01",
            "name": "Soft Idli (2 pieces)",
            "price": 45,
            "image": "https://images.unsplash.com/photo-1589301760014-d929f3979dbc?w=400"
          },
          "quantity": 2,
          "customizations": ["Extra Sambar"],
          "item_total": 100
        },
        {
          "id": "cart_item_02",
          "menu_item": {
            "id": "item_07",
            "name": "Filter Coffee",
            "price": 35,
            "image": "https://images.unsplash.com/photo-1514432324607-a09d9b4aefdd?w=400"
          },
          "quantity": 2,
          "customizations": [],
          "item_total": 70
        }
      ],
      "subtotal": 170,
      "delivery_fee": 30,
      "platform_fee": 5,
      "discount": 34,
      "taxes": 8,
      "total": 179,
      "applied_coupon": {
        "code": "CRAVE20",
        "type": "percentage",
        "value": 20,
        "max_discount": 100
      }
    },
    "POST /api/cart/add": {
      "message": "Item added to cart",
      "cart_item_id": "cart_item_03"
    },
    "POST /api/cart/apply-coupon": {
      "message": "Coupon applied successfully",
      "discount": 34
    }
  },

  "orders": {
    "GET /api/orders": {
      "count": 12,
      "next": null,
      "previous": null,
      "results": [
        {
          "id": "ord_01HZ9K3M4N5P",
          "restaurant": {
            "id": "rest_01",
            "name": "Murugan Idli Shop",
            "thumbnail": "https://images.unsplash.com/photo-1567188040759-fb8a883dc6d8?w=200"
          },
          "status": "delivered",
          "items_count": 3,
          "total": 179,
          "placed_at": "2025-03-18T08:30:00Z",
          "delivered_at": "2025-03-18T09:05:00Z",
          "has_review": true
        },
        {
          "id": "ord_02HZ9K3M4N5P",
          "restaurant": {
            "id": "rest_04",
            "name": "Biryani Brothers",
            "thumbnail": "https://images.unsplash.com/photo-1631515243349-e0cb75fb8d3a?w=200"
          },
          "status": "delivered",
          "items_count": 2,
          "total": 420,
          "placed_at": "2025-03-15T13:00:00Z",
          "delivered_at": "2025-03-15T13:48:00Z",
          "has_review": false
        },
        {
          "id": "ord_03HZ9K3M4N5P",
          "restaurant": {
            "id": "rest_03",
            "name": "Pizza Palace",
            "thumbnail": "https://images.unsplash.com/photo-1565299624946-b28f40a0ae38?w=200"
          },
          "status": "out_for_delivery",
          "items_count": 1,
          "total": 349,
          "placed_at": "2025-03-21T19:15:00Z",
          "delivered_at": null,
          "has_review": false
        },
        {
          "id": "ord_04HZ9K3M4N5P",
          "restaurant": {
            "id": "rest_02",
            "name": "Annapoorna Restaurant",
            "thumbnail": "https://images.unsplash.com/photo-1585937421612-70a008356fbe?w=200"
          },
          "status": "cancelled",
          "items_count": 4,
          "total": 560,
          "placed_at": "2025-03-10T12:00:00Z",
          "delivered_at": null,
          "has_review": false
        }
      ]
    },
    "GET /api/orders/:id": {
      "id": "ord_01HZ9K3M4N5P",
      "restaurant": {
        "id": "rest_01",
        "name": "Murugan Idli Shop",
        "thumbnail": "https://images.unsplash.com/photo-1567188040759-fb8a883dc6d8?w=200",
        "phone": "+91 422 234 5678",
        "address": "No. 77, Bharathiar Road, RS Puram"
      },
      "status": "delivered",
      "tracking": [
        {
          "status": "placed",
          "label": "Order Placed",
          "description": "Your order has been placed successfully",
          "time": "2025-03-18T08:30:00Z",
          "completed": true
        },
        {
          "status": "confirmed",
          "label": "Order Confirmed",
          "description": "Restaurant has accepted your order",
          "time": "2025-03-18T08:33:00Z",
          "completed": true
        },
        {
          "status": "preparing",
          "label": "Preparing",
          "description": "Your food is being prepared",
          "time": "2025-03-18T08:35:00Z",
          "completed": true
        },
        {
          "status": "out_for_delivery",
          "label": "Out for Delivery",
          "description": "Your order is on the way",
          "time": "2025-03-18T08:55:00Z",
          "completed": true
        },
        {
          "status": "delivered",
          "label": "Delivered",
          "description": "Order delivered successfully. Enjoy your meal!",
          "time": "2025-03-18T09:05:00Z",
          "completed": true
        }
      ],
      "items": [
        {
          "name": "Soft Idli (2 pieces)",
          "quantity": 2,
          "price": 45,
          "customizations": ["Extra Sambar"],
          "item_total": 100
        },
        {
          "name": "Filter Coffee",
          "quantity": 2,
          "price": 35,
          "customizations": [],
          "item_total": 70
        }
      ],
      "delivery_address": {
        "label": "Home",
        "line1": "42, Sai Nagar",
        "line2": "Near Ganesh Temple",
        "city": "Coimbatore",
        "pincode": "641011"
      },
      "subtotal": 170,
      "delivery_fee": 30,
      "platform_fee": 5,
      "discount": 34,
      "taxes": 8,
      "total": 179,
      "payment_method": "UPI",
      "payment_status": "paid",
      "placed_at": "2025-03-18T08:30:00Z",
      "delivered_at": "2025-03-18T09:05:00Z",
      "review": {
        "id": "rev_01",
        "rating": 5,
        "comment": "Absolutely loved the idlis! Super soft and the sambar was perfect. The filter coffee was divine. Will definitely order again.",
        "created_at": "2025-03-18T09:30:00Z",
        "ai_response": {
          "id": "ai_resp_01",
          "text": "Dear Arjun, thank you so much for your heartwarming review! We're thrilled to know that our soft idlis and sambar hit the right spot for you. Our chefs have been crafting these recipes for over 75 years, and it's incredibly rewarding to hear that the tradition is bringing joy to your mornings. The filter coffee you loved is brewed from Coorg estate beans that we source directly — your appreciation truly means the world to us. We look forward to being a part of your breakfast table again very soon! 🙏☕",
          "generated_at": "2025-03-18T09:31:00Z",
          "email_sent": true
        }
      }
    },
    "POST /api/orders": {
      "id": "ord_new_01",
      "status": "placed",
      "total": 179,
      "estimated_delivery_time": 25,
      "message": "Order placed successfully!"
    }
  },

  "reviews": {
    "POST /api/reviews": {
      "id": "rev_new_01",
      "message": "Review submitted. AI response is being generated...",
      "review": {
        "id": "rev_new_01",
        "rating": 4,
        "comment": "Great food!",
        "created_at": "2025-03-21T10:00:00Z"
      }
    },
    "GET /api/reviews/:id/ai-response": {
      "status": "completed",
      "ai_response": {
        "id": "ai_resp_new_01",
        "text": "Dear Arjun, thank you for your kind words! We're so happy that you enjoyed your meal. Your satisfaction is what drives us every day. We hope to delight your palate again on your next visit. Do try our seasonal specials next time! 😊",
        "generated_at": "2025-03-21T10:01:30Z",
        "email_sent": true
      }
    }
  },

  "coupons": {
    "GET /api/coupons": [
      {
        "code": "CRAVE20",
        "description": "20% off on all orders",
        "type": "percentage",
        "value": 20,
        "max_discount": 100,
        "min_order": 150,
        "expires_at": "2025-04-30T23:59:59Z"
      },
      {
        "code": "NEWUSER50",
        "description": "₹50 off for new users",
        "type": "flat",
        "value": 50,
        "min_order": 200,
        "expires_at": "2025-03-31T23:59:59Z"
      }
    ]
  },

  "search": {
    "GET /api/search?q=biryani": {
      "restaurants": [
        {
          "id": "rest_04",
          "name": "Biryani Brothers",
          "rating": 4.6,
          "thumbnail": "https://images.unsplash.com/photo-1631515243349-e0cb75fb8d3a?w=200"
        }
      ],
      "dishes": [
        {
          "id": "item_09",
          "name": "Chicken Biryani",
          "restaurant_name": "Biryani Brothers",
          "price": 220,
          "image": "https://images.unsplash.com/photo-1563379091339-03b21ab4a4f8?w=200"
        }
      ]
    }
  },

  "categories": {
    "GET /api/categories": [
      { "id": "c01", "name": "South Indian", "icon": "🥘", "color": "#F59E0B" },
      { "id": "c02", "name": "Biryani", "icon": "🍛", "color": "#EF4444" },
      { "id": "c03", "name": "Pizza", "icon": "🍕", "color": "#F97316" },
      { "id": "c04", "name": "Burgers", "icon": "🍔", "color": "#84CC16" },
      { "id": "c05", "name": "Chinese", "icon": "🥡", "color": "#8B5CF6" },
      { "id": "c06", "name": "Desserts", "icon": "🍰", "color": "#EC4899" },
      { "id": "c07", "name": "Street Food", "icon": "🌮", "color": "#06B6D4" },
      { "id": "c08", "name": "Beverages", "icon": "☕", "color": "#A78BFA" }
    ]
  }
}
